[
	{
		"model":"series.Actor",
		"pk":1,
		"fields" : {
			"lastname_actor":"Marley",
			"firstname_actor":"Bob"
		}
	},
	{
		"model":"series.Actor",
		"pk":2,
		"fields" : {
			"lastname_actor":"Pacino",
			"firstname_actor":"Al"
		}
	},
	{
		"model":"series.Actor",
		"pk":3,
		"fields" : {
			"lastname_actor":"De Niro",
			"firstname_actor":"Robert"
		}
	},
	{
		"model":"series.Actor",
		"pk":4,
		"fields" : {
			"lastname_actor":"Spacey",
			"firstname_actor":"Kevin"
		}
	},
	{
		"model":"series.Actor",
		"pk":5,
		"fields" : {
			"lastname_actor":"Bogart",
			"firstname_actor":"Humphrey"
		}
	}
]